{O2 <g>, 7782-44-7*0} -> 2 {O <g>, 17778-80-2*0}
  498.362  0.179  298.150  kJ/mol  [Test2Notes:515,514,901,11]  1  2  2021-04-19  1        // 1.1
  498.3583  0.0598  298.150  kJ/mol  [Test2Notes:515,514,901]  1.682  2  2021-04-19  1        // 1.2
  498.4480  0.0359  298.150  kJ/mol  [Test2Notes:515,589,902]  1  2  2021-04-19  1        // 1.3
  498.46001  0.00598  298.150  kJ/mol  [Test2Notes:589,903]  1  2  2021-04-19  1        // 1.4
  498.4648  0.0108  298.150  kJ/mol  [Test2Notes:588,903]  1  2  2021-04-19  1        // 1.5
  498.4528  0.0132  298.150  kJ/mol  [Test2Notes:585,903]  1  2  2021-04-19  1        // 1.6
.
{O <g>, 17778-80-2*0} -> {O <g, triplet only>, 17778-80-2*1}
  0.000000  0.000000  298.150  kJ/mol  [Test2Notes:2]  1  2  2021-04-19  1        // 2.1
.
{O <g>, 17778-80-2*0} -> {O <g, singlet>, 17778-80-2*2}
  189.293809  0.000060  298.150  kJ/mol  [Test2Notes:3]  1  2  2021-04-19  1        // 3.1
  189.29187  0.00120  298.150  kJ/mol  [Test2Notes:9]  1.646  2  2021-04-19  1        // 3.2
.
{O <g>, 17778-80-2*0} -> {O+ <g>, 14581-93-2}
  1313.414568  0.000718  298.150  kJ/mol  [Test2Notes:556,57]  1  2  2021-04-19  1        // 4.1
  1313.4094  0.0965  298.150  kJ/mol  [Test2Notes:373]  1  2  2021-04-19  1        // 4.2
.
{O- <g>, 14337-01-0} -> {O <g>, 17778-80-2*0}
  141.132026  0.000072  298.150  kJ/mol  [Test2Notes:554,581]  1  2  2021-04-19  1        // 5.1
  141.132062  0.000072  298.150  kJ/mol  [Test2Notes:553,554,4]  1  2  2021-04-19  1        // 5.2
  141.132468  0.000239  298.150  kJ/mol  [Test2Notes:555]  1.756  2  2021-04-19  1        // 5.3
.
{O2 <g>, 7782-44-7*0} -> {[O2]+ <g>, 12185-07-8}
  1165.691  0.675  298.150  kJ/mol  [Test2Notes:590]  1  2  2021-04-19  1        // 6.1
  1165.402  0.772  298.150  kJ/mol  [Test2Notes:502]  1  2  2021-04-19  1        // 6.2
  1165.306  0.482  298.150  kJ/mol  [Test2Notes:503]  1  2  2021-04-19  1        // 6.3
  1165.333  0.114  298.150  kJ/mol  [Test2Notes:501]  1.091  2  2021-04-19  1        // 6.4
  1165.2195  0.0239  298.150  kJ/mol  [Test2Notes:602,904]  1  2  2021-04-19  1        // 6.5
  1165.2076  0.0156  298.150  kJ/mol  [Test2Notes:711,904]  1  2  2021-04-19  1        // 6.6
  1165.1358  0.0598  298.150  kJ/mol  [Test2Notes:712]  1.269  2  2021-04-19  1        // 6.7
.
{O2 <g>, 7782-44-7*0} -> {O+ <g>, 14581-93-2} + {O <g>, 17778-80-2*0}
  1811.803  0.110  298.150  kJ/mol  [Test2Notes:587,908,504,505,506]  1  2  2021-04-19  1        // 7.1
  1811.7368  0.0311  298.150  kJ/mol  [Test2Notes:585,909,504,507,592]  4.458  2  2021-04-19  1        // 7.2
  1811.992  0.120  298.150  kJ/mol  [Test2Notes:587,911,504,505,506]  1  2  2021-04-19  1        // 7.3
  1811.9318  0.0718  298.150  kJ/mol  [Test2Notes:585,911,504,507,592]  1  2  2021-04-19  1        // 7.4
  1811.871  0.110  298.150  kJ/mol  [Test2Notes:912,714,505,506]  1  2  2021-04-19  1        // 7.5
  1811.8050  0.0311  298.150  kJ/mol  [Test2Notes:912,714,507,592]  2.229  2  2021-04-19  1        // 7.6
  1811.703  0.289  298.150  kJ/mol  [Test2Notes:913,712,508]  1  2  2021-04-19  1        // 7.7
  1811.70  1.54  298.150  kJ/mol  [Test2Notes:713,907]  1  2  2021-04-19  1        // 7.8
.
{O2 <g>, 7782-44-7*0} -> {O+ <g>, 14581-93-2} + {O- <g>, 14337-01-0}
  1670.683  0.116  298.150  kJ/mol  [Test2Notes:590,906]  1  2  2021-04-19  1        // 8.1
  1670.73807  0.00837  298.150  kJ/mol  [Test2Notes:586,905]  1  2  2021-04-19  1        // 8.2
.
{[O2]- <g>, 11062-77-4} -> {O2 <g>, 7782-44-7*0}
  42.871  0.675  298.150  kJ/mol  [Test2Notes:603]  1  2  2021-04-19  1        // 9.1
  40.84  2.89  298.150  kJ/mol  [Test2Notes:377]  1  2  2021-04-19  1        // 9.2
  43.74  4.82  298.150  kJ/mol  [Test2Notes:375]  1  2  2021-04-19  1        // 9.3
  42.77  2.89  298.150  kJ/mol  [Test2Notes:378]  1  2  2021-04-19  1        // 9.4
  43.74  5.79  298.150  kJ/mol  [Test2Notes:379,983]  1  2  2021-04-19  1        // 9.5
.
{O- <g>, 14337-01-0} + {O2 <g>, 7782-44-7*0} -> {O <g>, 17778-80-2*0} + {[O2]- <g>, 11062-77-4}
  99.698  0.772  298.150  kJ/mol  [Test2Notes:374,982]  1.215  2  2021-04-19  1        // 10.1
.
3/2 {O2 <g>, 7782-44-7*0} -> {O3 <g>, 10028-15-6}
  141.82  1.26  298.150  kJ/mol  [Test2Notes:538,925]  1  2  2021-04-19  1        // 11.1
  141.001  0.837  298.150  kJ/mol  [Test2Notes:539,926]  1  2  2021-04-19  1        // 11.2
  144.33  4.18  298.150  kJ/mol  [Test2Notes:540,927]  1  2  2021-04-19  1        // 11.3
.
{O3 <g>, 10028-15-6} -> {O2 <g>, 7782-44-7*0} + {O <g>, 17778-80-2*0}
  106.549  0.250  298.150  kJ/mol  [Test2Notes:750,928]  3.83  2  2021-04-19  1        // 12.1
  107.4994  0.0400  298.150  kJ/mol  [Test2Notes:751,929]  1  2  2021-04-19  1        // 12.2
.
{O3 <g>, 10028-15-6} -> {[O2]+ <g>, 12185-07-8} + {O <g>, 17778-80-2*0}
  1272.040  0.386  298.150  kJ/mol  [Test2Notes:748]  1.756  2  2021-04-19  1        // 13.1
.
{O3 <g>, 10028-15-6} -> {[O3]+ <g>, 12596-82-6}
  1207.943  0.386  298.150  kJ/mol  [Test2Notes:748]  1  2  2021-04-19  1        // 14.1
  1209.005  0.965  298.150  kJ/mol  [Test2Notes:301]  1  2  2021-04-19  1        // 14.2
  1208.04  4.82  298.150  kJ/mol  [Test2Notes:302,301]  1  2  2021-04-19  1        // 14.3
  1209.005  0.965  298.150  kJ/mol  [Test2Notes:303]  1  2  2021-04-19  1        // 14.4
  1209.00  4.82  298.150  kJ/mol  [Test2Notes:304,748]  1  2  2021-04-19  1        // 14.5
.
{[O3]- <g>, 12596-80-4} -> {O3 <g>, 10028-15-6}
  202.579  0.239  298.150  kJ/mol  [Test2Notes:306]  1  2  2021-04-19  1        // 15.1
  202.601  0.386  298.150  kJ/mol  [Test2Notes:305]  1  2  2021-04-19  1        // 15.2
  200.58  3.86  298.150  kJ/mol  [Test2Notes:307]  1  2  2021-04-19  1        // 15.3
.
{H2 <g>, 1333-74-0*0} -> 2 {H <g>, 12385-13-6}
  435.9709  0.0718  298.150  kJ/mol  [Test2Notes:692]  1  2  2021-04-19  1        // 16.1
  435.94214  0.00359  298.150  kJ/mol  [Test2Notes:693]  14.99  2  2021-04-19  1        // 16.2
  435.9984  0.0120  298.150  kJ/mol  [Test2Notes:520,716,914,11]  1  2  2021-04-19  1        // 16.3
  436.00195  0.00598  298.150  kJ/mol  [Test2Notes:717]  1.067  2  2021-04-19  1        // 16.4
  435.99789  0.00239  298.150  kJ/mol  [Test2Notes:579,580]  1  2  2021-04-19  1        // 16.5
  435.996093  0.000957  298.150  kJ/mol  [Test2Notes:583,720]  1  2  2021-04-19  1        // 16.6
  435.995495  0.000479  298.150  kJ/mol  [Test2Notes:584]  1  2  2021-04-19  1        // 16.7
  435.995591  0.000239  298.150  kJ/mol  [Test2Notes:715,915]  1  2  2021-04-19  1        // 16.8
.
{H2 <g>, 1333-74-0*0} -> {H2 <g, para>, 1333-74-0*2}
 -0.057688  0.000000  298.150  kJ/mol  [Test2Notes:2]  1  2  2021-04-19  1        // 17.1
.
{H2 <g>, 1333-74-0*0} -> {H2 <g, ortho>, 1333-74-0*1}
  0.01931  0.00120  298.150  kJ/mol  [Test2Notes:5]  1  2  2021-04-19  1        // 18.1
.
{D2 <g>, 7782-39-0} -> 2 {D <g>, 16873-17-9}
  443.38404  0.00598  298.150  kJ/mol  [Test2Notes:693,715]  8.354  2  2021-04-19  1        // 19.1
  443.44027  0.00479  298.150  kJ/mol  [Test2Notes:520,716]  1.384  2  2021-04-19  1        // 19.2
  443.440027  0.000359  298.150  kJ/mol  [Test2Notes:718]  17.83  2  2021-04-19  1        // 19.3
  443.434046  0.000837  298.150  kJ/mol  [Test2Notes:719,720]  1  2  2021-04-19  1        // 19.4
  443.433328  0.000837  298.150  kJ/mol  [Test2Notes:584]  1  2  2021-04-19  1        // 19.5
  443.433675  0.000060  298.150  kJ/mol  [Test2Notes:715,915]  1  2  2021-04-19  1        // 19.6
.
{HD <g>, 13983-20-5} -> {H <g>, 12385-13-6} + {D <g>, 16873-17-9}
  439.3325  0.0120  298.150  kJ/mol  [Test2Notes:693,715]  5.301  2  2021-04-19  1        // 20.1
  439.40066  0.00479  298.150  kJ/mol  [Test2Notes:520,716]  1.067  2  2021-04-19  1        // 20.2
  439.39684  0.00120  298.150  kJ/mol  [Test2Notes:584]  1.044  2  2021-04-19  1        // 20.3
  439.39624  0.00120  298.150  kJ/mol  [Test2Notes:721]  1  2  2021-04-19  1        // 20.4
  439.395580  0.000120  298.150  kJ/mol  [Test2Notes:715,915]  1  2  2021-04-19  1        // 20.5
.
{H2 <g>, 1333-74-0*0} -> {[H2]+ <g>, 12184-90-6}
  1488.47598  0.00479  298.150  kJ/mol  [Test2Notes:716,724]  1  2  2021-04-19  1        // 21.1
  1488.479649  0.000215  298.150  kJ/mol  [Test2Notes:722]  1  2  2021-04-19  1        // 21.2
  1488.479649  0.000144  298.150  kJ/mol  [Test2Notes:573,574]  1  2  2021-04-19  1        // 21.3
  1488.479374  0.000203  298.150  kJ/mol  [Test2Notes:573,575]  1  2  2021-04-19  1        // 21.4
.
{D2 <g>, 7782-39-0} -> {[D2]+ <g>, 12184-84-8}
  1492.360959  0.000287  298.150  kJ/mol  [Test2Notes:573,576]  1  2  2021-04-19  1        // 22.1
  1492.37588  0.00718  298.150  kJ/mol  [Test2Notes:725]  2.089  2  2021-04-19  1        // 22.2
.
{HD <g>, 13983-20-5} -> {[HD]+ <g>, 12181-16-7}
  1490.26714  0.00718  298.150  kJ/mol  [Test2Notes:723,724,725]  1  2  2021-04-19  1        // 23.1
  1490.268084  0.000239  298.150  kJ/mol  [Test2Notes:722]  1  2  2021-04-19  1        // 23.2
  1490.268108  0.000144  298.150  kJ/mol  [Test2Notes:573,722]  1  2  2021-04-19  1        // 23.3
.
{H <g>, 12385-13-6} -> {H+ <g>, 12408-02-5*0}
  1312.049495  0.000000  298.150  kJ/mol  [Test2Notes:726,1001]  1  2  2021-04-19  1        // 24.1
  1312.049381  0.000120  298.150  kJ/mol  [Test2Notes:582,916]  1  2  2021-04-19  1        // 24.2
.
{D <g>, 16873-17-9} -> {D+ <g>, 14464-47-2}
  1312.406495  0.000000  298.150  kJ/mol  [Test2Notes:726,1001]  1  2  2021-04-19  1        // 25.1
  1312.406391  0.000120  298.150  kJ/mol  [Test2Notes:582]  1  2  2021-04-19  1        // 25.2
.
{H- <g>, 12184-88-2} -> {H <g>, 12385-13-6}
  72.76872  0.00179  298.150  kJ/mol  [Test2Notes:565]  1  2  2021-04-19  1        // 26.1
  72.769940  0.000120  298.150  kJ/mol  [Test2Notes:698,697]  1  2  2021-04-19  1        // 26.2
  72.769557  0.000239  298.150  kJ/mol  [Test2Notes:581,753,754]  1.414  2  2021-04-19  1        // 26.3
  72.7449  0.0299  298.150  kJ/mol  [Test2Notes:380,754]  1  2  2021-04-19  1        // 26.4
.
{D- <g>, 14452-69-8} -> {D <g>, 16873-17-9}
  72.80712  0.00718  298.150  kJ/mol  [Test2Notes:565]  1  2  2021-04-19  1        // 27.1
.
{H2 <g>, 1333-74-0*0} -> {H+ <g>, 12408-02-5*0} + {H- <g>, 12184-88-2}
  1675.2781  0.0359  298.150  kJ/mol  [Test2Notes:578]  1  2  2021-04-19  1        // 28.1
  1675.2423  0.0359  298.150  kJ/mol  [Test2Notes:578]  1  2  2021-04-19  1        // 28.2
  1675.2877  0.0120  298.150  kJ/mol  [Test2Notes:593]  1.044  2  2021-04-19  1        // 28.3
.
{D2 <g>, 7782-39-0} -> {D+ <g>, 14464-47-2} + {D- <g>, 14452-69-8}
  1683.0263  0.0120  298.150  kJ/mol  [Test2Notes:593]  1  2  2021-04-19  1        // 29.1
.
{H2 <g>, 1333-74-0*0} -> {H <g>, 12385-13-6} + {H+ <g>, 12408-02-5*0}
  1748.190  0.289  298.150  kJ/mol  [Test2Notes:739]  1  2  2021-04-19  1        // 30.1
.
{H2 <g>, 1333-74-0*0} + {H+ <g>, 12408-02-5*0} -> {[H3]+ <g>, 28132-48-1}
 -422.30  5.40  298.150  kJ/mol  [Test2Notes:17,18]  1  2  2021-04-19  1        // 31.1
 -421.55  2.50  298.150  kJ/mol  [Test2Notes:113]  1  2  2021-04-19  1        // 31.2
 -422.16  8.00  298.150  kJ/mol  [Test2Notes:17]  1  2  2021-04-19  1        // 31.3
.
1/2 {O2 <g>, 7782-44-7*0} + {H2 <g>, 1333-74-0*0} -> {H2O <cr,l>, 7732-18-5*500}
 -285.8250  0.0400  298.150  kJ/mol  [Test2Notes:518,694,696,918]  1  2  2021-04-19  1        // 32.1
 -285.836  0.320  298.150  kJ/mol  [Test2Notes:519,919]  1  2  2021-04-19  1        // 32.2
.
{H2O <cr,l>, 7732-18-5*500} -> {H2O <g>, 7732-18-5*0}
  44.0120  0.0130  298.150  kJ/mol  [Test2Notes:518,699,917]  1  2  2021-04-19  1        // 33.1
  44.00400  0.00200  298.150  kJ/mol  [Test2Notes:516,1011]  1  2  2021-04-19  1        // 33.2
  44.01600  0.01000  298.150  kJ/mol  [Test2Notes:517,1005]  1.164  2  2021-04-19  1        // 33.3
.
{H2O <g>, 7732-18-5*0} -> {[H2O]+ <g>, 56583-62-1}
  1217.897  0.386  298.150  kJ/mol  [Test2Notes:730]  1.067  2  2021-04-19  1        // 34.1
  1217.5530  0.0837  298.150  kJ/mol  [Test2Notes:729]  1  2  2021-04-19  1        // 34.2
  1217.4932  0.0239  298.150  kJ/mol  [Test2Notes:728]  1  2  2021-04-19  1        // 34.3
  1217.4214  0.0239  298.150  kJ/mol  [Test2Notes:604]  2.954  2  2021-04-19  1        // 34.4
.
{H2O <g>, 7732-18-5*0} + {H+ <g>, 12408-02-5*0} -> {[H3O]+ <g>, 13968-08-6}
 -691.26  8.00  298.150  kJ/mol  [Test2Notes:17]  1  2  2021-04-19  1        // 35.1
.
{OH <g>, 3352-57-6*0} -> {O <g>, 17778-80-2*0} + {H <g>, 12385-13-6}
  427.827  0.179  298.150  kJ/mol  [Test2Notes:521]  11.56  2  2021-04-19  1        // 36.1
  428.19  1.20  298.150  kJ/mol  [Test2Notes:522]  1.445  2  2021-04-19  1        // 36.2
.
{H2O <g>, 7732-18-5*0} -> {[OH]+ <g>, 12259-29-9} + {H <g>, 12385-13-6}
  1752.727  0.772  298.150  kJ/mol  [Test2Notes:523]  1  2  2021-04-19  1        // 37.1
  1752.833  0.338  298.150  kJ/mol  [Test2Notes:731]  1  2  2021-04-19  1        // 37.2
  1752.872  0.193  298.150  kJ/mol  [Test2Notes:731]  1  2  2021-04-19  1        // 37.3
  1752.727  0.482  298.150  kJ/mol  [Test2Notes:731]  1  2  2021-04-19  1        // 37.4
.
{OH <g>, 3352-57-6*0} -> {[OH]+ <g>, 12259-29-9}
  1255.7373  0.0239  298.150  kJ/mol  [Test2Notes:524]  1  2  2021-04-19  1        // 38.1
  1255.064  0.965  298.150  kJ/mol  [Test2Notes:525]  1  2  2021-04-19  1        // 38.2
  1255.064  0.965  298.150  kJ/mol  [Test2Notes:526]  1  2  2021-04-19  1        // 38.3
  1255.064  0.965  298.150  kJ/mol  [Test2Notes:527]  1  2  2021-04-19  1        // 38.4
  1255.064  0.965  298.150  kJ/mol  [Test2Notes:528]  1  2  2021-04-19  1        // 38.5
.
{OH- <g>, 14280-30-9*0} -> {OH <g>, 3352-57-6*0}
  176.54888  0.00203  298.150  kJ/mol  [Test2Notes:605]  1  2  2021-04-19  1        // 39.1
  176.548759  0.000359  298.150  kJ/mol  [Test2Notes:704]  1  2  2021-04-19  1        // 39.2
.
{H2O <g>, 7732-18-5*0} -> {OH <g>, 3352-57-6*0} + {H <g>, 12385-13-6}
  497.3807  0.0598  298.150  kJ/mol  [Test2Notes:529]  4  2  2021-04-19  1        // 40.1
.
1/2 {O2 <g>, 7782-44-7*0} + 1/2 {H2 <g>, 1333-74-0*0} -> {OH <g>, 3352-57-6*0}
  37.321  0.669  298.150  kJ/mol  [Test2Notes:530]  1  2  2021-04-19  1        // 41.1
.
{H2O2 <cr,l>, 7722-84-1*500} -> {H2O <cr,l>, 7732-18-5*500} + 1/2 {O2 <g>, 7782-44-7*0}
 -98.0730  0.0837  298.150  kJ/mol  [Test2Notes:537]  1  2  2021-04-19  1        // 42.1
 -98.235  0.126  298.150  kJ/mol  [Test2Notes:627]  1  2  2021-04-19  1        // 42.2
 -98.1099  0.0837  298.150  kJ/mol  [Test2Notes:740]  1  2  2021-04-19  1        // 42.3
 -98.466  0.167  298.150  kJ/mol  [Test2Notes:745]  2.044  2  2021-04-19  1        // 42.4
.
{H2O2 <cr,l>, 7722-84-1*500} -> {H2O2 <g>, 7722-84-1*0}
  51.631  0.418  298.150  kJ/mol  [Test2Notes:537,923]  1  2  2021-04-19  1        // 43.1
  50.00  4.18  298.150  kJ/mol  [Test2Notes:534,920]  1  2  2021-04-19  1        // 43.2
  51.540  0.418  298.150  kJ/mol  [Test2Notes:745,922]  1  2  2021-04-19  1        // 43.3
  47.95  4.40  298.150  kJ/mol  [Test2Notes:534,1002,1005]  1  2  2021-04-19  1        // 43.4
  51.920  0.150  298.150  kJ/mol  [Test2Notes:534,1003,1005]  1  2  2021-04-19  1        // 43.5
  47.51  4.18  298.150  kJ/mol  [Test2Notes:535,921]  1.067  2  2021-04-19  1        // 43.6
  47.51  3.10  298.150  kJ/mol  [Test2Notes:535,1002,1005]  1.414  2  2021-04-19  1        // 43.7
  51.750  0.160  298.150  kJ/mol  [Test2Notes:535,1003,1005]  1  2  2021-04-19  1        // 43.8
  52.2  10.0  298.150  kJ/mol  [Test2Notes:536,1002,1005]  1  2  2021-04-19  1        // 43.9
  51.9250  0.0730  298.150  kJ/mol  [Test2Notes:536,1003,1005]  1  2  2021-04-19  1        // 43.10
.
{H2O2 <g>, 7722-84-1*0} -> 2 {OH <g>, 3352-57-6*0}
  210.4528  0.0407  298.150  kJ/mol  [Test2Notes:531]  1  2  2021-04-19  1        // 44.1
.
{[HO2]- <g>, 14691-59-9} -> {HO2 <g>, 3170-83-0}
  103.790  0.579  298.150  kJ/mol  [Test2Notes:308]  1  2  2021-04-19  1        // 45.1
  103.790  0.579  298.150  kJ/mol  [Test2Notes:309,335]  1  2  2021-04-19  1        // 45.2
  103.79  1.64  298.150  kJ/mol  [Test2Notes:336]  1  2  2021-04-19  1        // 45.3
.
{HO2 <g>, 3170-83-0} -> {[HO2]+ <g>, 12207-52-2}
  1095.305  0.675  298.150  kJ/mol  [Test2Notes:886]  1  2  2021-04-19  1        // 46.1
.
{H2O2 <g>, 7722-84-1*0} -> {H <g>, 12385-13-6} + {[HO2]+ <g>, 12207-52-2}
  1463.13  3.38  298.150  kJ/mol  [Test2Notes:886]  1  2  2021-04-19  1        // 47.1
.
{HO2 <g>, 3170-83-0} + {NO <g>, 10102-43-9} -> {OH <g>, 3352-57-6*0} + {ONO <g>, 10102-44-0}
 -28.09  1.00  298.150  kJ/mol  [Test2Notes:357,1003]  2.768  2  2021-04-19  1        // 48.1
 -30.98  1.10  298.150  kJ/mol  [Test2Notes:357,1002]  1  2  2021-04-19  1        // 48.2
.
{N2 <g>, 7727-37-9} -> 2 {N <g>, 17778-88-0}
  945.365  0.598  298.150  kJ/mol  [Test2Notes:541,115,932,1011]  1  2  2021-04-19  1        // 49.1
  945.377  0.479  298.150  kJ/mol  [Test2Notes:756,932]  1  2  2021-04-19  1        // 49.2
  945.736  0.479  298.150  kJ/mol  [Test2Notes:541,932]  1.756  2  2021-04-19  1        // 49.3
.
{N <g>, 17778-88-0} -> {N+ <g>, 14158-23-7}
  1403.24629  0.00120  298.150  kJ/mol  [Test2Notes:741,57]  1  2  2021-04-19  1        // 50.1
  1403.24569  0.00598  298.150  kJ/mol  [Test2Notes:741]  1  2  2021-04-19  1        // 50.2
  1403.24988  0.00598  298.150  kJ/mol  [Test2Notes:742]  1  2  2021-04-19  1        // 50.3
.
{N2 <g>, 7727-37-9} -> {[N2]+ <g>, 13966-04-6}
  1503.311664  0.000801  298.150  kJ/mol  [Test2Notes:341]  1  2  2021-04-19  1        // 51.1
  1503.2978  0.0120  298.150  kJ/mol  [Test2Notes:343]  1.164  2  2021-04-19  1        // 51.2
  1503.3480  0.0479  298.150  kJ/mol  [Test2Notes:344,1001]  1  2  2021-04-19  1        // 51.3
  1503.2763  0.0598  298.150  kJ/mol  [Test2Notes:343]  1  2  2021-04-19  1        // 51.4
.
{N2 <g>, 7727-37-9} -> {N+ <g>, 14158-23-7} + {N <g>, 17778-88-0}
  2348.1185  0.0965  298.150  kJ/mol  [Test2Notes:381]  1  2  2021-04-19  1        // 52.1
.
{NO <g>, 10102-43-9} -> {N <g>, 17778-88-0} + {O <g>, 17778-80-2*0}
  630.587  0.120  298.150  kJ/mol  [Test2Notes:679]  1  2  2021-04-19  1        // 53.1
  630.587  0.120  298.150  kJ/mol  [Test2Notes:680]  1  2  2021-04-19  1        // 53.2
  630.826  0.144  298.150  kJ/mol  [Test2Notes:346,117]  1.242  2  2021-04-19  1        // 53.3
  630.898  0.965  298.150  kJ/mol  [Test2Notes:347]  1  2  2021-04-19  1        // 53.4
  631.188  0.386  298.150  kJ/mol  [Test2Notes:348,681]  1.414  2  2021-04-19  1        // 53.5
.
{NO <g>, 10102-43-9} -> {[NO]+ <g>, 14452-93-8}
  893.36103  0.00479  298.150  kJ/mol  [Test2Notes:352]  1  2  2021-04-19  1        // 54.1
  893.32873  0.00598  298.150  kJ/mol  [Test2Notes:353]  5.076  2  2021-04-19  1        // 54.2
  893.3072  0.0598  298.150  kJ/mol  [Test2Notes:355]  1  2  2021-04-19  1        // 54.3
  893.35864  0.00598  298.150  kJ/mol  [Test2Notes:354]  1  2  2021-04-19  1        // 54.4
  893.3323  0.0239  298.150  kJ/mol  [Test2Notes:356]  1.114  2  2021-04-19  1        // 54.5
.
{ONO <g>, 10102-44-0} -> {NO <g>, 10102-43-9} + 1/2 {O2 <g>, 7782-44-7*0}
  54.000  0.300  298.150  kJ/mol  [Test2Notes:683,1002]  10.37  2  2021-04-19  1        // 55.1
  54.2400  0.0600  298.150  kJ/mol  [Test2Notes:683,1003]  47.26  2  2021-04-19  1        // 55.2
  51.20  1.50  298.150  kJ/mol  [Test2Notes:684,1002]  4  2  2021-04-19  1        // 55.3
  65.700  0.550  298.150  kJ/mol  [Test2Notes:684,1003]  16  2  2021-04-19  1        // 55.4
.
{ONO <g>, 10102-44-0} -> {[ONO]+ <g>, 14522-82-8}
  924.202  0.239  298.150  kJ/mol  [Test2Notes:350]  1  2  2021-04-19  1        // 56.1
  924.158  0.289  298.150  kJ/mol  [Test2Notes:349]  1  2  2021-04-19  1        // 56.2
  925.51  2.89  298.150  kJ/mol  [Test2Notes:351]  1  2  2021-04-19  1        // 56.3
.
{[ONO]- <g>, 14797-65-0} -> {ONO <g>, 10102-44-0}
  219.310  0.482  298.150  kJ/mol  [Test2Notes:382]  1  2  2021-04-19  1        // 57.1
  219.50  2.41  298.150  kJ/mol  [Test2Notes:383]  1  2  2021-04-19  1        // 57.2
.
{ONO <g>, 10102-44-0} -> {NO <g>, 10102-43-9} + {O <g>, 17778-80-2*0}
  306.103  0.239  298.150  kJ/mol  [Test2Notes:384]  1  2  2021-04-19  1        // 58.1
  306.2581  0.0837  298.150  kJ/mol  [Test2Notes:385]  1  2  2021-04-19  1        // 58.2
  306.3179  0.0144  298.150  kJ/mol  [Test2Notes:386]  1.215  2  2021-04-19  1        // 58.3
  306.32511  0.00718  298.150  kJ/mol  [Test2Notes:387]  3.437  2  2021-04-19  1        // 58.4
  306.29999  0.00239  298.150  kJ/mol  [Test2Notes:388]  1  2  2021-04-19  1        // 58.5
  306.300824  0.000598  298.150  kJ/mol  [Test2Notes:389]  1  2  2021-04-19  1        // 58.6
.
{N2O <g>, 10024-97-2} + {H2 <g>, 1333-74-0*0} -> {H2O <cr,l>, 7732-18-5*500} + {N2 <g>, 7727-37-9}
 -368.392  0.109  298.150  kJ/mol  [Test2Notes:657,952]  1  2  2021-04-19  1        // 59.1
.
{N2O <g>, 10024-97-2} -> {N2 <g>, 7727-37-9} + 1/2 {O2 <g>, 7782-44-7*0}
 -81.645  0.418  298.150  kJ/mol  [Test2Notes:690]  2.229  2  2021-04-19  1        // 60.1
.
{N2 <g>, 7727-37-9} + 1/2 {O2 <g>, 7782-44-7*0} -> {N2O <g>, 10024-97-2}
  81.503  0.400  298.150  kJ/mol  [Test2Notes:643]  2.709  2  2021-04-19  1        // 61.1
.
{N2O <g>, 10024-97-2} -> {[N2O]+ <g>, 12269-46-4}
  1244.7100  0.0598  298.150  kJ/mol  [Test2Notes:358]  1  2  2021-04-19  1        // 62.1
  1244.913  0.239  298.150  kJ/mol  [Test2Notes:359]  1  2  2021-04-19  1        // 62.2
  1245.153  0.957  298.150  kJ/mol  [Test2Notes:360]  1  2  2021-04-19  1        // 62.3
  1244.346  0.193  298.150  kJ/mol  [Test2Notes:361]  1.915  2  2021-04-19  1        // 62.4
.
{CO <g>, 630-08-0} + {NO <g>, 10102-43-9} -> {CO2 <g>, 124-38-9} + 1/2 {N2 <g>, 7727-37-9}
 -373.180  0.660  298.150  kJ/mol  [Test2Notes:681]  1.215  2  2021-04-19  1        // 63.1
.
{N2O <g>, 10024-97-2} + {CO <g>, 630-08-0} -> {CO2 <g>, 124-38-9} + {N2 <g>, 7727-37-9}
 -364.48  1.46  298.150  kJ/mol  [Test2Notes:656,950]  1  2  2021-04-19  1        // 64.1
 -365.649  0.243  298.150  kJ/mol  [Test2Notes:657,952]  1  2  2021-04-19  1        // 64.2
.
{C <graphite>, 7440-44-0*500} + {O2 <g>, 7782-44-7*0} -> {CO2 <g>, 124-38-9}
 -393.5600  0.0550  298.150  kJ/mol  [Test2Notes:650,940]  1.61  2  2021-04-19  1        // 65.1
 -393.4980  0.0620  298.150  kJ/mol  [Test2Notes:652,938,655,941]  1  2  2021-04-19  1        // 65.2
 -393.4427  0.0640  298.150  kJ/mol  [Test2Notes:653,939,655,941]  1  2  2021-04-19  1        // 65.3
 -393.4620  0.0380  298.150  kJ/mol  [Test2Notes:654,942]  1  2  2021-04-19  1        // 65.4
 -393.4680  0.0380  298.150  kJ/mol  [Test2Notes:758,944]  1  2  2021-04-19  1        // 65.5
 -393.4620  0.0560  298.150  kJ/mol  [Test2Notes:651,943]  1  2  2021-04-19  1        // 65.6
 -393.4640  0.0240  298.150  kJ/mol  [Test2Notes:651,943]  1  2  2021-04-19  1        // 65.7
 -393.510  0.130  298.150  kJ/mol  [Test2Notes:11,5]  1  2  2021-04-19  1        // 65.8
 -393.5094  0.0460  298.150  kJ/mol  [Test2Notes:757,12,15,10]  1  2  2021-04-19  1        // 65.9
.
{C <diamond>, 7440-44-0*501} + {O2 <g>, 7782-44-7*0} -> {CO2 <g>, 124-38-9}
 -395.284  0.123  298.150  kJ/mol  [Test2Notes:651,943]  1  2  2021-04-19  1        // 66.1
 -395.3350  0.0700  298.150  kJ/mol  [Test2Notes:651,943]  1  2  2021-04-19  1        // 66.2
 -395.350  0.182  298.150  kJ/mol  [Test2Notes:653,939,757,651]  1  2  2021-04-19  1        // 66.3
.
{C <graphite>, 7440-44-0*500} -> {C <diamond>, 7440-44-0*501}
  1.899  0.124  298.150  kJ/mol  [Test2Notes:655,941]  1  2  2021-04-19  1        // 67.1
  1.8710  0.0740  298.150  kJ/mol  [Test2Notes:651,943]  1  2  2021-04-19  1        // 67.2
.
{CH4 <g>, 74-82-8} + 2 {O2 <g>, 7782-44-7*0} -> {CO2 <g>, 124-38-9} + 2 {H2O <cr,l>, 7732-18-5*500}
 -890.314  0.350  298.150  kJ/mol  [Test2Notes:695,696,702,705,945]  1  2  2021-04-19  1        // 68.1
 -890.699  0.430  298.150  kJ/mol  [Test2Notes:703,947]  1  2  2021-04-19  1        // 68.2
 -892.11  2.09  298.150  kJ/mol  [Test2Notes:764,958,1001]  1  2  2021-04-19  1        // 68.3
.
2 {H2 <g>, 1333-74-0*0} + {C <graphite>, 7440-44-0*500} -> {CH4 <g>, 74-82-8}
 -74.5494  0.0680  298.150  kJ/mol  [Test2Notes:662,956,1003]  1  2  2021-04-19  1        // 69.1
 -73.13  1.84  298.150  kJ/mol  [Test2Notes:662,956,1002]  1  2  2021-04-19  1        // 69.2
.
{CO <g>, 630-08-0} + 1/2 {O2 <g>, 7782-44-7*0} -> {CO2 <g>, 124-38-9}
 -281.669  0.300  298.150  kJ/mol  [Test2Notes:658,954,1003]  4.269  2  2021-04-19  1        // 70.1
 -284.37  2.20  298.150  kJ/mol  [Test2Notes:658,954,1002]  1  2  2021-04-19  1        // 70.2
 -283.051  0.150  298.150  kJ/mol  [Test2Notes:659,953]  1  2  2021-04-19  1        // 70.3
 -282.941  0.116  298.150  kJ/mol  [Test2Notes:695,696,518,946]  1  2  2021-04-19  1        // 70.4
 -282.850  0.850  298.150  kJ/mol  [Test2Notes:656,949]  1  2  2021-04-19  1        // 70.5
 -283.071  0.146  298.150  kJ/mol  [Test2Notes:657,951]  1  2  2021-04-19  1        // 70.6
 -282.636  0.420  298.150  kJ/mol  [Test2Notes:761,1003]  1  2  2021-04-19  1        // 70.7
 -282.071  0.400  298.150  kJ/mol  [Test2Notes:761,1002]  2.181  2  2021-04-19  1        // 70.8
 -284.13  2.09  298.150  kJ/mol  [Test2Notes:764,958]  1  2  2021-04-19  1        // 70.9
.
{CO <g>, 630-08-0} + {H2O <g>, 7732-18-5*0} -> {CO2 <g>, 124-38-9} + {H2 <g>, 1333-74-0*0}
 -41.970  0.151  298.150  kJ/mol  [Test2Notes:660,964,1003]  5.657  2  2021-04-19  1        // 71.1
 -41.76  2.41  298.150  kJ/mol  [Test2Notes:660,964,1002]  1  2  2021-04-19  1        // 71.2
 -41.077  0.283  298.150  kJ/mol  [Test2Notes:661,965,1003]  1  2  2021-04-19  1        // 71.3
 -41.86  1.80  298.150  kJ/mol  [Test2Notes:661,965,1002]  1  2  2021-04-19  1        // 71.4
.
{CO <g>, 630-08-0} -> {C+ <g>, 14067-05-1} + {O- <g>, 14337-01-0}
  2022.06  1.93  298.150  kJ/mol  [Test2Notes:763]  1  2  2021-04-19  1        // 72.1
.
{CO <g>, 630-08-0} -> {C+ <g>, 14067-05-1} + {O <g>, 17778-80-2*0}
  2165.98  9.65  298.150  kJ/mol  [Test2Notes:763]  1  2  2021-04-19  1        // 73.1
.
{C <graphite>, 7440-44-0*500} + {CO2 <g>, 124-38-9} -> 2 {CO <g>, 630-08-0}
  172.203  0.300  298.150  kJ/mol  [Test2Notes:658,955,1003]  1  2  2021-04-19  1        // 74.1
  168.57  4.10  298.150  kJ/mol  [Test2Notes:658,955,1002]  1  2  2021-04-19  1        // 74.2
  173.233  0.840  298.150  kJ/mol  [Test2Notes:761,1003]  1  2  2021-04-19  1        // 74.3
  179.488  0.840  298.150  kJ/mol  [Test2Notes:761,1002]  8.537  2  2021-04-19  1        // 74.4
  172.3990  0.0580  298.150  kJ/mol  [Test2Notes:662,956,1003]  1  2  2021-04-19  1        // 74.5
  170.37  1.57  298.150  kJ/mol  [Test2Notes:662,956,1002]  1.297  2  2021-04-19  1        // 74.6
.
{CO <g>, 630-08-0} -> {C <g>, 7440-44-0} + {O <g>, 17778-80-2*0}
  1076.384  0.359  298.150  kJ/mol  [Test2Notes:663]  1.795  2  2021-04-19  1        // 75.1
  1077.190  0.300  298.150  kJ/mol  [Test2Notes:372]  1  2  2021-04-19  1        // 75.2
  1077.054  0.359  298.150  kJ/mol  [Test2Notes:372,981]  1  2  2021-04-19  1        // 75.3
.
{C <g>, 7440-44-0} -> {C+ <g>, 14067-05-1}
  1086.56687  0.00120  298.150  kJ/mol  [Test2Notes:762,57]  1  2  2021-04-19  1        // 76.1
.
{C- <g>, 14337-00-9} -> {C <g>, 7440-44-0}
  122.11445  0.00193  298.150  kJ/mol  [Test2Notes:781]  1  2  2021-04-19  1        // 77.1
.
{C <graphite>, 7440-44-0*500} -> {C <g>, 7440-44-0}
  714.1  16.1  298.150  kJ/mol  [Test2Notes:685,959,1003]  1  2  2021-04-19  1        // 78.1
  1764.9  3090.0  298.150  kJ/mol  [Test2Notes:685,959,1002]  1  2  2021-04-19  1        // 78.2
  733.0  15.0  298.150  kJ/mol  [Test2Notes:686,1003,1005]  1.067  2  2021-04-19  1        // 78.3
  696.0  100.0  298.150  kJ/mol  [Test2Notes:686,1002,1005]  1  2  2021-04-19  1        // 78.4
  716.979  0.700  298.150  kJ/mol  [Test2Notes:687,960,1003]  1  2  2021-04-19  1        // 78.5
  721.9  30.0  298.150  kJ/mol  [Test2Notes:687,960,1002]  1  2  2021-04-19  1        // 78.6
  735.0  42.0  298.150  kJ/mol  [Test2Notes:688,962,1002]  1  2  2021-04-19  1        // 78.7
  733.94  3.50  298.150  kJ/mol  [Test2Notes:689,961,1003]  4.861  2  2021-04-19  1        // 78.8
  759.9  73.0  298.150  kJ/mol  [Test2Notes:689,961,1002]  1  2  2021-04-19  1        // 78.9
  722.1  18.0  298.150  kJ/mol  [Test2Notes:808,1001,1002]  1  2  2021-04-19  1        // 78.10
.
{C2 <g>, 12070-15-4} -> 2 {C <g>, 7440-44-0}
  603.43  9.57  298.150  kJ/mol  [Test2Notes:807,1005,968]  1  2  2021-04-19  1        // 79.1
  601.2  29.3  298.150  kJ/mol  [Test2Notes:685,1003]  1  2  2021-04-19  1        // 79.2
  604.33  8.00  298.150  kJ/mol  [Test2Notes:687,1003,969]  1  2  2021-04-19  1        // 79.3
  608.1  50.0  298.150  kJ/mol  [Test2Notes:687,1002,969]  1  2  2021-04-19  1        // 79.4
.
2 {C <graphite>, 7440-44-0*500} -> {C2 <g>, 12070-15-4}
  805.1  24.0  298.150  kJ/mol  [Test2Notes:808,1001,1002]  1  2  2021-04-19  1        // 80.1
  825.10  8.00  298.150  kJ/mol  [Test2Notes:808,1001,1003]  1  2  2021-04-19  1        // 80.2
  773.7  41.8  298.150  kJ/mol  [Test2Notes:685,1002]  1.297  2  2021-04-19  1        // 80.3
  832.3  29.3  298.150  kJ/mol  [Test2Notes:685,1003]  1  2  2021-04-19  1        // 80.4
.
